<svg xmlns="http://www.w3.org/2000/svg" viewBox="0 0 600 116.11">
  <path d="M190.2,89.8v24.1h48.9v24.6H190.2v40.2H161.9V64.8H247v25Z" transform="translate(-64.8 -64.8)"
        style="fill:#fff"/>
  <rect width="72.9" height="25" style="fill:#f0f"/>
  <polygon points="72.9 49.1 0 49.1 0 74.1 48 74.1 48 113.9 72.9 113.9 72.9 49.1" style="fill:#f0f"/>
  <path d="M190.2,89.8v24.1h48.9v24.6H190.2v40.2H161.9V64.8H247v25Z" transform="translate(-64.8 -64.8)"
        style="fill:#fff"/>
  <path
    d="M339.8,138.2c0,25.1-18.4,42.7-44.6,42.7s-44.7-17.6-44.7-42.7,18.6-42.9,44.7-42.9S339.8,113.3,339.8,138.2Zm-25.5,0c0-11.7-7.9-20.1-19.1-20.1-11.4,0-19.3,8.4-19.3,20.1,0,11.9,7.9,20.1,19.3,20.1C306.4,158.3,314.3,150.1,314.3,138.2Z"
    transform="translate(-64.8 -64.8)" style="fill:#fff"/>
  <path d="M406.8,122c-13.2.5-21.6,4-28,10.2v46.6H351.5V97.5h27.3v8.7c7.2-6.2,15.9-10.1,28-10.1Z"
        transform="translate(-64.8 -64.8)" style="fill:#fff"/>
  <path
    d="M453.2,161c7.2,0,11.7-2,11.7-5.5,0-2.9-3.2-4.9-8.5-5.7L440,146.9c-13.9-2.4-23.8-10.2-23.8-24.5,0-17.1,14.6-27.1,36.2-27.1,19.3,0,36.7,6.5,37.9,28h-24c-.5-6-6.4-8.7-13.9-8.7-7,0-10.2,2.5-10.2,5.5,0,2.8,2,5.4,8.5,6.5l15.1,2.5c15.1,2.9,25.3,10.2,25.3,24.6,0,18.8-16.8,27.1-38,27.1-20.9,0-38.2-8.6-40-30.2l24.1.2C438.3,158,444.7,161,453.2,161Z"
    transform="translate(-64.8 -64.8)" style="fill:#fff"/>
  <path
    d="M570.2,176.9a58.43,58.43,0,0,1-21.8,4c-22.1,0-35.5-14.4-35.5-36.4V120.7H497V97.5h15.9V69.9H540V97.6h27.7v23.3H540v22.9c0,8.4,4.9,12.2,12.7,12.2,5.2,0,9.5-1.5,14.4-3.4Z"
    transform="translate(-64.8 -64.8)" style="fill:#fff"/>
  <path
    d="M664.8,97.5v81.3H637.7v-4.4a39,39,0,0,1-22.3,6.5c-22,0-40.4-18.8-40.4-42.9,0-24.3,18.4-42.7,40.4-42.7,9,0,16.2,2.3,22.3,6.4V97.5Zm-27.1,53.1V125.5c-5.2-5.7-10.9-7.2-16.8-7.2-11.1,0-19.3,8.6-19.3,19.8s8.2,19.8,19.3,19.8C626.8,157.8,632.5,156.3,637.7,150.6Z"
    transform="translate(-64.8 -64.8)" style="fill:#fff"/>
  <rect width="72.9" height="25" style="fill:#f0f"/>
  <polygon points="72.9 49.1 0 49.1 0 74.1 48 74.1 48 113.9 72.9 113.9 72.9 49.1" style="fill:#f0f"/>
</svg>
